8 Szóbeágyazások | Szövegbányászat és mesterséges intelligencia R-ben
…
A lenti show_vector() függvényt definiálva a kapott eredmény egy data frame lesz, és az n változtatásával a kapcsolódó szavak számát is könnyen változtathatjuk.

show_vector <- function(vectors, pattern, n = 5) {
  term <- mn_word_vectors[pattern, , drop = F]
  cos_sim <- sim2(x = vectors, y = term, method = "cosine", norm = "l2")
  cos_sim_head <- head(sort(cos_sim[, 1], decreasing = TRUE), n)
  output <- enframe(cos_sim_head, name = "term", value = "dist")
  return(output)
}

Példánkban láthatjuk, hogy a „barack” szó beágyazásának eredménye nem gyümölcsöt fog adni, hanem az Egyesült Államok elnökét és a hozzá kapcsolódó szavakat.

show_vector(mn_word_vectors, "barack", 10)
#> # A tibble: 10 × 2
#>   term          dist
#>   <chr>        <dbl>
#> 1 barack       1    
#> 2 obama        0.726
#> 3 amerikai     0.429
#> 4 elnök        0.394
#> 5 demokrata    0.389
#> 6 republikánus 0.282
#> # ℹ 4 more rows

Ugyanez működik magyar vezetőkkel is.

show_vector(mn_word_vectors, "orbán", 10)
#> # A tibble: 10 × 2
#>   term            dist
#>   <chr>          <dbl>
#> 1 orbán          1.00 
#> 2 viktor         0.932
#> 3 miniszterelnök 0.764
#> 4 mondta         0.699
#> 5 kormányfő      0.686
#> 6 fidesz         0.675
#> # ℹ 4 more rows
…
