11 NLP és névelemfelismerés | Szövegbányászat és mesterséges intelligencia R-ben
…
Majd a doc_id segítségével összakapcsoljuk azokat a lemmákat, amelyek egy dokumentumhoz tartoznak és az egyes lemmákat ; segítsével elválasztjuk elmástól.

parsedtxt_2<- parsedtxt %>% 
  group_by(doc_id) %>% 
  mutate(text = str_c(lemma, collapse = ";"))

parsedtxt_2
#> # A tibble: 21 × 3
#> # Groups:   doc_id [2]
#>   doc_id lemma      text                                                                                       
#>   <chr>  <chr>      <chr>                                                                                      
#> 1 d1     Budapest   Budapest;süt;a;nap;.                                                                       
#> 2 d1     süt        Budapest;süt;a;nap;.                                                                       
#> 3 d1     a          Budapest;süt;a;nap;.                                                                       
#> 4 d1     nap        Budapest;süt;a;nap;.                                                                       
#> 5 d1     .          Budapest;süt;a;nap;.                                                                       
#> 6 d2     tájékoztat tájékoztat;ön;,;hogy;az;ülés;vezetés;Hegedűs;Lorántné;és;Szűcs;Lajos;jegyző;lesz;segítség;.
#> # ℹ 15 more rows

Mivel az eredeti táblában minden lemma az eredeti az azt tartalmazó dokumentum id-jét kapta meg, az így létrehozott táblánkban a szövegek annyiszor ismétlődnek, ahány lemmából álltak. Ezért egy következő lépésben ki kell törtölnünk a feleslegesen ismétlődő sorokat. Ehhez először töröljük a lemma oszlopot, hogy a sorok tökéletesen egyezzenek.

parsedtxt_2$lemma <- NULL
parsedtxt_2
#> # A tibble: 21 × 2
#> # Groups:   doc_id [2]
#>   doc_id text                                                                                       
#>   <chr>  <chr>                                                                                      
#> 1 d1     Budapest;süt;a;nap;.                                                                       
#> 2 d1     Budapest;süt;a;nap;.                                                                       
#> 3 d1     Budapest;süt;a;nap;.                                                                       
#> 4 d1     Budapest;süt;a;nap;.                                                                       
#> 5 d1     Budapest;süt;a;nap;.                                                                       
#> 6 d2     tájékoztat;ön;,;hogy;az;ülés;vezetés;Hegedűs;Lorántné;és;Szűcs;Lajos;jegyző;lesz;segítség;.
#> # ℹ 15 more rows
…
