10 Szövegösszehasonlítás | Szövegbányászat és mesterséges intelligencia R-ben
…
Hasonlóan ellenőrizhetjük az egyes évekre eső megfigyelések számát is.

tv_tvjav_minta %>%
  count(ev)
#> # A tibble: 24 x 2
#>      ev     n
#>   <dbl> <int>
#> 1  1994    11
#> 2  1995    31
#> 3  1996    23
#> 4  1997    31
#> 5  1998    17
#> 6  1999    20
#> # ... with 18 more rows
…
